{
    "executionRoleArn": "arn:aws:iam::397358212259:role/ecsTaskExecutionRole",
    "containerDefinitions": [
        {
            "name": "ocr",
            "image": "397358212259.dkr.ecr.ap-south-1.amazonaws.com/ocre:latest",
            "essential": true,
            "portMappings": [
                {
                    "hostPort": 8000,
                    "protocol": "tcp",
                    "containerPort": 8000
                }
            ],
             "logConfiguration": { "logDriver": "awslogs", "options": { "awslogs-group": "awslogs-ocr", "awslogs-region": "ap-south-1a", "awslogs-stream-prefix": "awslogs-ocr" } }
        }
    ],
    "requiresCompatibilities": [
        "FARGATE"
    ],
    "networkMode": "awsvpc",
    "cpu": "1024",
    "memory": "7168",
    "family": "ocr"
}
